simulation/qsim/alu.msim.vcd
$comment
	File created using the following command:
		vcd file alu.msim.vcd -direction
$end
$date
	Wed Jan 24 11:30:12 2018
$end
$version
	ModelSim Version 10.1e
$end
$timescale
	1ps
$end
$scope module alu_vlg_vec_tst $end
$var reg 8 ! F_input [7:0] $end
$var reg 7 " Op_code [6:0] $end
$var reg 8 # W_input [7:0] $end
$var wire 1 $ F_output [7] $end
$var wire 1 % F_output [6] $end
$var wire 1 & F_output [5] $end
$var wire 1 ' F_output [4] $end
$var wire 1 ( F_output [3] $end
$var wire 1 ) F_output [2] $end
$var wire 1 * F_output [1] $end
$var wire 1 + F_output [0] $end
$var wire 1 , W_output [7] $end
$var wire 1 - W_output [6] $end
$var wire 1 . W_output [5] $end
$var wire 1 / W_output [4] $end
$var wire 1 0 W_output [3] $end
$var wire 1 1 W_output [2] $end
$var wire 1 2 W_output [1] $end
$var wire 1 3 W_output [0] $end
$var wire 1 4 sampler $end
$scope module i1 $end
$var wire 1 5 gnd $end
$var wire 1 6 vcc $end
$var wire 1 7 unknown $end
$var tri1 1 8 devclrn $end
$var tri1 1 9 devpor $end
$var tri1 1 : devoe $end
$var wire 1 ; Equal1~0_combout $end
$var wire 1 < Equal0~0_combout $end
$var wire 1 = Equal0~1_combout $end
$var wire 1 > W_output_temp[7]~0_combout $end
$var wire 1 ? Op_code~combout [6] $end
$var wire 1 @ Op_code~combout [5] $end
$var wire 1 A Op_code~combout [4] $end
$var wire 1 B Op_code~combout [3] $end
$var wire 1 C Op_code~combout [2] $end
$var wire 1 D Op_code~combout [1] $end
$var wire 1 E Op_code~combout [0] $end
$var wire 1 F temp_output [7] $end
$var wire 1 G temp_output [6] $end
$var wire 1 H temp_output [5] $end
$var wire 1 I temp_output [4] $end
$var wire 1 J temp_output [3] $end
$var wire 1 K temp_output [2] $end
$var wire 1 L temp_output [1] $end
$var wire 1 M temp_output [0] $end
$var wire 1 N F_input~combout [7] $end
$var wire 1 O F_input~combout [6] $end
$var wire 1 P F_input~combout [5] $end
$var wire 1 Q F_input~combout [4] $end
$var wire 1 R F_input~combout [3] $end
$var wire 1 S F_input~combout [2] $end
$var wire 1 T F_input~combout [1] $end
$var wire 1 U F_input~combout [0] $end
$var wire 1 V F_output_temp [7] $end
$var wire 1 W F_output_temp [6] $end
$var wire 1 X F_output_temp [5] $end
$var wire 1 Y F_output_temp [4] $end
$var wire 1 Z F_output_temp [3] $end
$var wire 1 [ F_output_temp [2] $end
$var wire 1 \ F_output_temp [1] $end
$var wire 1 ] F_output_temp [0] $end
$var wire 1 ^ W_output_temp [7] $end
$var wire 1 _ W_output_temp [6] $end
$var wire 1 ` W_output_temp [5] $end
$var wire 1 a W_output_temp [4] $end
$var wire 1 b W_output_temp [3] $end
$var wire 1 c W_output_temp [2] $end
$var wire 1 d W_output_temp [1] $end
$var wire 1 e W_output_temp [0] $end
$upscope $end
$upscope $end
$enddefinitions $end
#0
$dumpvars
b0 !
b0 "
b0 #
x+
x*
x)
x(
x'
x&
x%
x$
x3
x2
x1
x0
x/
x.
x-
x,
x4
05
16
x7
18
19
1:
0;
0<
0=
0>
0E
0D
0C
0B
0A
0@
0?
xM
xL
xK
xJ
xI
xH
xG
xF
zU
zT
zS
zR
0Q
0P
0O
0N
x]
x\
x[
xZ
xY
xX
xW
xV
xe
xd
xc
xb
xa
x`
x_
x^
$end
#10000
b1 !
b1 "
b1 #
1E
04
1>
#20000
b11 !
b11 "
b11 #
b10 !
b10 "
b10 #
0E
1D
14
0>
#30000
b11 !
b11 "
b11 #
1E
04
1>
1<
1=
0F
0G
0H
0I
0J
0K
0L
0M
0V
0W
0X
0Y
0Z
0[
0\
0]
0$
0%
0&
0'
0(
0)
0*
0+
#40000
b111 !
b111 "
b111 #
b101 !
b101 "
b101 #
b100 !
b100 "
b100 #
0E
0D
1C
14
0>
0<
0=
0^
0_
0`
0a
0b
0c
0d
0e
0,
0-
0.
0/
00
01
02
03
#50000
b101 !
b101 "
b101 #
1E
04
1>
#60000
b111 !
b111 "
b111 #
b110 !
b110 "
b110 #
0E
1D
14
0>
#70000
b111 !
b111 "
b111 #
1E
04
1>
1<
#80000
b1111 !
b1111 "
b1111 #
b1011 !
b1011 "
b1011 #
b1001 !
b1001 "
b1001 #
b1000 !
b1000 "
b1000 #
0E
0D
0C
1B
14
0>
0<
#90000
b1001 !
b1001 "
b1001 #
1E
04
1>
#100000
b1011 !
b1011 "
b1011 #
b1010 !
b1010 "
b1010 #
0E
1D
14
0>
#110000
b1011 !
b1011 "
b1011 #
1E
04
1>
1<
#120000
b1111 !
b1111 "
b1111 #
b1101 !
b1101 "
b1101 #
b1100 !
b1100 "
b1100 #
0E
0D
1C
14
0>
0<
#130000
b1101 !
b1101 "
b1101 #
1E
04
1>
#140000
b1111 !
b1111 "
b1111 #
b1110 !
b1110 "
b1110 #
0E
1D
14
0>
#150000
b1111 !
b1111 "
b1111 #
1E
04
1>
1<
#160000
b11111 !
b11111 "
b11111 #
b10111 !
b10111 "
b10111 #
b10011 !
b10011 "
b10011 #
b10001 !
b10001 "
b10001 #
b10000 !
b10000 "
b10000 #
0E
0D
0C
0B
1A
1Q
14
0>
0<
1=
0=
#170000
b10001 !
b10001 "
b10001 #
1E
04
1>
#180000
b10011 !
b10011 "
b10011 #
b10010 !
b10010 "
b10010 #
0E
1D
14
0>
#190000
b10011 !
b10011 "
b10011 #
1E
04
1>
#200000
b10111 !
b10111 "
b10111 #
b10101 !
b10101 "
b10101 #
b10100 !
b10100 "
b10100 #
0E
0D
1C
14
0>
#210000
b10101 !
b10101 "
b10101 #
1E
04
1>
#220000
b10111 !
b10111 "
b10111 #
b10110 !
b10110 "
b10110 #
0E
1D
14
0>
#230000
b10111 !
b10111 "
b10111 #
1E
04
1>
#240000
b11111 !
b11111 "
b11111 #
b11011 !
b11011 "
b11011 #
b11001 !
b11001 "
b11001 #
b11000 !
b11000 "
b11000 #
0E
0D
0C
1B
14
0>
#250000
b11001 !
b11001 "
b11001 #
1E
04
1>
#260000
b11011 !
b11011 "
b11011 #
b11010 !
b11010 "
b11010 #
0E
1D
14
0>
#270000
b11011 !
b11011 "
b11011 #
1E
04
1>
#280000
b11111 !
b11111 "
b11111 #
b11101 !
b11101 "
b11101 #
b11100 !
b11100 "
b11100 #
0E
0D
1C
14
0>
#290000
b11101 !
b11101 "
b11101 #
1E
04
1>
#300000
b11111 !
b11111 "
b11111 #
b11110 !
b11110 "
b11110 #
0E
1D
14
0>
#310000
b11111 !
b11111 "
b11111 #
1E
04
1>
#320000
b111111 !
b111111 "
b111111 #
b101111 !
b101111 "
b101111 #
b100111 !
b100111 "
b100111 #
b100011 !
b100011 "
b100011 #
b100001 !
b100001 "
b100001 #
b100000 !
b100000 "
b100000 #
0E
0D
0C
0B
0A
1@
0Q
1P
14
0>
#330000
b100001 !
b100001 "
b100001 #
1E
04
1>
#340000
b100011 !
b100011 "
b100011 #
b100010 !
b100010 "
b100010 #
0E
1D
14
0>
#350000
b100011 !
b100011 "
b100011 #
1E
04
1>
1<
#360000
b100111 !
b100111 "
b100111 #
b100101 !
b100101 "
b100101 #
b100100 !
b100100 "
b100100 #
0E
0D
1C
14
0>
0<
#370000
b100101 !
b100101 "
b100101 #
1E
04
1>
#380000
b100111 !
b100111 "
b100111 #
b100110 !
b100110 "
b100110 #
0E
1D
14
0>
#390000
b100111 !
b100111 "
b100111 #
1E
04
1>
1<
#400000
b101111 !
b101111 "
b101111 #
b101011 !
b101011 "
b101011 #
b101001 !
b101001 "
b101001 #
b101000 !
b101000 "
b101000 #
0E
0D
0C
1B
14
0>
0<
1;
1H
1J
1K
1L
1>
1M
1X
1Z
1[
1\
1]
1&
1(
1)
1*
1+
#410000
b101001 !
b101001 "
b101001 #
1E
04
#420000
b101011 !
b101011 "
b101011 #
b101010 !
b101010 "
b101010 #
0E
1D
14
#430000
b101011 !
b101011 "
b101011 #
1E
04
1<
#440000
b101111 !
b101111 "
b101111 #
b101101 !
b101101 "
b101101 #
b101100 !
b101100 "
b101100 #
0E
0D
1C
14
0<
#450000
b101101 !
b101101 "
b101101 #
1E
04
#460000
b101111 !
b101111 "
b101111 #
b101110 !
b101110 "
b101110 #
0E
1D
14
#470000
b101111 !
b101111 "
b101111 #
1E
04
1<
#480000
b111111 !
b111111 "
b111111 #
b110111 !
b110111 "
b110111 #
b110011 !
b110011 "
b110011 #
b110001 !
b110001 "
b110001 #
b110000 !
b110000 "
b110000 #
0E
0D
0C
0B
1A
1Q
14
0<
0;
1I
0>
1Y
1`
1a
1b
1c
1d
1e
1'
1.
1/
10
11
12
13
#490000
b110001 !
b110001 "
b110001 #
1E
04
1>
#500000
b110011 !
b110011 "
b110011 #
b110010 !
b110010 "
b110010 #
0E
1D
14
0>
#510000
b110011 !
b110011 "
b110011 #
1E
04
1>
#520000
b110111 !
b110111 "
b110111 #
b110101 !
b110101 "
b110101 #
b110100 !
b110100 "
b110100 #
0E
0D
1C
14
0>
#530000
b110101 !
b110101 "
b110101 #
1E
04
1>
#540000
b110111 !
b110111 "
b110111 #
b110110 !
b110110 "
b110110 #
0E
1D
14
0>
#550000
b110111 !
b110111 "
b110111 #
1E
04
1>
#560000
b111111 !
b111111 "
b111111 #
b111011 !
b111011 "
b111011 #
b111001 !
b111001 "
b111001 #
b111000 !
b111000 "
b111000 #
0E
0D
0C
1B
14
0>
#570000
b111001 !
b111001 "
b111001 #
1E
04
1>
#580000
b111011 !
b111011 "
b111011 #
b111010 !
b111010 "
b111010 #
0E
1D
14
0>
#590000
b111011 !
b111011 "
b111011 #
1E
04
1>
#600000
b111111 !
b111111 "
b111111 #
b111101 !
b111101 "
b111101 #
b111100 !
b111100 "
b111100 #
0E
0D
1C
14
0>
#610000
b111101 !
b111101 "
b111101 #
1E
04
1>
#620000
b111111 !
b111111 "
b111111 #
b111110 !
b111110 "
b111110 #
0E
1D
14
0>
#630000
b111111 !
b111111 "
b111111 #
1E
04
1>
#640000
b1111111 !
b1111111 "
b1111111 #
b1011111 !
b1011111 "
b1011111 #
b1001111 !
b1001111 "
b1001111 #
b1000111 !
b1000111 "
b1000111 #
b1000011 !
b1000011 "
b1000011 #
b1000001 !
b1000001 "
b1000001 #
b1000000 !
b1000000 "
b1000000 #
0E
0D
0C
0B
0A
0@
1?
0Q
0P
1O
14
0>
#650000
b1000001 !
b1000001 "
b1000001 #
1E
04
1>
#660000
b1000011 !
b1000011 "
b1000011 #
b1000010 !
b1000010 "
b1000010 #
0E
1D
14
0>
#670000
b1000011 !
b1000011 "
b1000011 #
1E
04
1>
#680000
b1000111 !
b1000111 "
b1000111 #
b1000101 !
b1000101 "
b1000101 #
b1000100 !
b1000100 "
b1000100 #
0E
0D
1C
14
0>
#690000
b1000101 !
b1000101 "
b1000101 #
1E
04
1>
#700000
b1000111 !
b1000111 "
b1000111 #
b1000110 !
b1000110 "
b1000110 #
0E
1D
14
0>
#710000
b1000111 !
b1000111 "
b1000111 #
1E
04
1>
#720000
b1001111 !
b1001111 "
b1001111 #
b1001011 !
b1001011 "
b1001011 #
b1001001 !
b1001001 "
b1001001 #
b1001000 !
b1001000 "
b1001000 #
0E
0D
0C
1B
14
0>
#730000
b1001001 !
b1001001 "
b1001001 #
1E
04
1>
#740000
b1001011 !
b1001011 "
b1001011 #
b1001010 !
b1001010 "
b1001010 #
0E
1D
14
0>
#750000
b1001011 !
b1001011 "
b1001011 #
1E
04
1>
#760000
b1001111 !
b1001111 "
b1001111 #
b1001101 !
b1001101 "
b1001101 #
b1001100 !
b1001100 "
b1001100 #
0E
0D
1C
14
0>
#770000
b1001101 !
b1001101 "
b1001101 #
1E
04
1>
#780000
b1001111 !
b1001111 "
b1001111 #
b1001110 !
b1001110 "
b1001110 #
0E
1D
14
0>
#790000
b1001111 !
b1001111 "
b1001111 #
1E
04
1>
#800000
b1011111 !
b1011111 "
b1011111 #
b1010111 !
b1010111 "
b1010111 #
b1010011 !
b1010011 "
b1010011 #
b1010001 !
b1010001 "
b1010001 #
b1010000 !
b1010000 "
b1010000 #
0E
0D
0C
0B
1A
1Q
14
0>
#810000
b1010001 !
b1010001 "
b1010001 #
1E
04
1>
#820000
b1010011 !
b1010011 "
b1010011 #
b1010010 !
b1010010 "
b1010010 #
0E
1D
14
0>
#830000
b1010011 !
b1010011 "
b1010011 #
1E
04
1>
#840000
b1010111 !
b1010111 "
b1010111 #
b1010101 !
b1010101 "
b1010101 #
b1010100 !
b1010100 "
b1010100 #
0E
0D
1C
14
0>
#850000
b1010101 !
b1010101 "
b1010101 #
1E
04
1>
#860000
b1010111 !
b1010111 "
b1010111 #
b1010110 !
b1010110 "
b1010110 #
0E
1D
14
0>
#870000
b1010111 !
b1010111 "
b1010111 #
1E
04
1>
#880000
b1011111 !
b1011111 "
b1011111 #
b1011011 !
b1011011 "
b1011011 #
b1011001 !
b1011001 "
b1011001 #
b1011000 !
b1011000 "
b1011000 #
0E
0D
0C
1B
14
0>
#890000
b1011001 !
b1011001 "
b1011001 #
1E
04
1>
#900000
b1011011 !
b1011011 "
b1011011 #
b1011010 !
b1011010 "
b1011010 #
0E
1D
14
0>
#910000
b1011011 !
b1011011 "
b1011011 #
1E
04
1>
#920000
b1011111 !
b1011111 "
b1011111 #
b1011101 !
b1011101 "
b1011101 #
b1011100 !
b1011100 "
b1011100 #
0E
0D
1C
14
0>
#930000
b1011101 !
b1011101 "
b1011101 #
1E
04
1>
#940000
b1011111 !
b1011111 "
b1011111 #
b1011110 !
b1011110 "
b1011110 #
0E
1D
14
0>
#950000
b1011111 !
b1011111 "
b1011111 #
1E
04
1>
#960000
b1111111 !
b1111111 "
b1111111 #
b1101111 !
b1101111 "
b1101111 #
b1100111 !
b1100111 "
b1100111 #
b1100011 !
b1100011 "
b1100011 #
b1100001 !
b1100001 "
b1100001 #
b1100000 !
b1100000 "
b1100000 #
0E
0D
0C
0B
0A
1@
0Q
1P
14
0>
#970000
b1100001 !
b1100001 "
b1100001 #
1E
04
1>
#980000
b1100011 !
b1100011 "
b1100011 #
b1100010 !
b1100010 "
b1100010 #
0E
1D
14
0>
#990000
b1100011 !
b1100011 "
b1100011 #
1E
04
1>
